{
  "settings": {
    "i18n": {
      "el": {
        "Set coefficient": "Ορίστε το συντελεστή",
        "Coefficient": "Συντελεστής",
        "Remove": "Διαγραφή",
        "Rule type": "Τύπος κανόνα",
        "Course type": "Τύπος μαθήματος",
        "Set course type or select all types": "Ορίστε τον τύπο μαθήματος ή επιλέξτε όλοι οι τύποι"
      }
    }
  },
  "components": [
    {
      "type": "fieldset",
      "components": [
        {
          "columns": [
            {
              "components": [
                {
                  "label": "Rule type",
                  "disabled": true,
                  "tableView": true,
                  "defaultValue": "CourseType",
                  "clearOnHide": false,
                  "hidden": true,
                  "key": "ruleType.alternateName",
                  "type": "textfield",
                  "input": true
                }
              ],
              "width": 0,
              "offset": 0,
              "push": 0,
              "pull": 0,
              "size": "md"
            },
            {
              "components": [
                {
                  "description": "Set course type or select all types",
                  "label": "Course type",
                  "labelPosition": "top",
                  "dataSrc": "url",
                  "data": {
                    "url": "CourseTypes/All?$top=-1&$select=id,name&$orderby=id asc",
                    "headers": []
                  },
                  "searchFields": [
                    "id",
                    "name"
                  ],
                  "template": "<span class='d-block pr-5 text-truncate'>{{ item.name }}</span>",
                  "valueProperty": "id",
                  "selectValues": "value",
                  "key": "checkValues",
                  "type": "select",
                  "lazyLoad": false,
                  "input": true,
                  "validate": {
                    "required": true
                  }
                }
              ],
              "width": 4,
              "offset": 0,
              "push": 0,
              "pull": 0,
              "size": "md"
            },
            {
              "components": [
                {
                  "description": "Set coefficient",
                  "label": "Coefficient",
                  "tableView": true,
                  "validate": {
                    "required": true
                  },
                  "defaultValue": 1,
                  "key": "coefficient",
                  "type": "number",
                  "input": true,
                  "hideOnChildrenHidden": false
                }
              ],
              "size": "md",
              "width": 2,
              "offset": 0,
              "push": 0,
              "pull": 0
            },
            {
              "components": [
                {
                  "type": "button",
                  "action": "event",
                  "label": "Remove",
                  "event": "remove",
                  "size": "sm",
                  "key": "remove",
                  "theme": "danger",
                  "disableOnInvalid": false,
                  "input": true,
                  "tableView": true
                }
              ],
              "size": "md",
              "width": 2,
              "offset": 0,
              "push": 0,
              "pull": 0
            }
          ],
          "customClass": "text-dark",
          "hideLabel": true,
          "type": "columns",
          "input": false
        }
      ]
    }
  ]
}
